{
    "name": "Input",
    "maps": [
        {
            "name": "Gameplay",
            "id": "12c28a1a-5786-4bfa-87c0-75c71e25335a",
            "actions": [
                {
                    "name": "Select",
                    "type": "Button",
                    "id": "77b126e6-2e3f-4677-89b3-b5533525b6a9",
                    "expectedControlType": "Button",
                    "processors": "",
                    "interactions": ""
                },
                {
                    "name": "SetTask",
                    "type": "Button",
                    "id": "f4340735-e542-454d-a82f-f98f9e09d795",
                    "expectedControlType": "Button",
                    "processors": "",
                    "interactions": ""
                },
                {
                    "name": "PointerPosition",
                    "type": "PassThrough",
                    "id": "6ebcad42-ba47-409b-aba0-cc410a703857",
                    "expectedControlType": "Vector2",
                    "processors": "",
                    "interactions": ""
                }
            ],
            "bindings": [
                {
                    "name": "",
                    "id": "7237d09d-9d64-4bc9-a751-e8dd38217953",
                    "path": "<Mouse>/leftButton",
                    "interactions": "",
                    "processors": "",
                    "groups": "",
                    "action": "Select",
                    "isComposite": false,
                    "isPartOfComposite": false
                },
                {
                    "name": "",
                    "id": "8ac0b4be-c703-40ac-be8e-b81150972bc7",
                    "path": "<Mouse>/rightButton",
                    "interactions": "",
                    "processors": "",
                    "groups": "",
                    "action": "SetTask",
                    "isComposite": false,
                    "isPartOfComposite": false
                },
                {
                    "name": "",
                    "id": "a372c73c-704c-42db-a0dc-0ced23cff10c",
                    "path": "<Mouse>/position",
                    "interactions": "",
                    "processors": "",
                    "groups": "",
                    "action": "PointerPosition",
                    "isComposite": false,
                    "isPartOfComposite": false
                }
            ]
        }
    ],
    "controlSchemes": []
}