%YAML 1.1
%TAG !u! tag:unity3d.com,2011:
--- !u!114 &11400000
MonoBehaviour:
  m_ObjectHideFlags: 0
  m_CorrespondingSourceObject: {fileID: 0}
  m_PrefabInstance: {fileID: 0}
  m_PrefabAsset: {fileID: 0}
  m_GameObject: {fileID: 0}
  m_Enabled: 1
  m_EditorHideFlags: 0
  m_Script: {fileID: 11500000, guid: 36787c1ceaee88547acc18556a7095ae, type: 3}
  m_Name: TasksIcons
  m_EditorClassIdentifier: 
  _moveSprite: {fileID: 21300000, guid: 033336c308c8eb048a200b88b4c9012f, type: 3}
  _interactWithFactorySprite: {fileID: 21300000, guid: e9923c6d5bf099243b4b1ce45e68853a, type: 3}
  _interactWithStorageSprite: {fileID: 21300000, guid: c3c81b037aa57ed4bb6d9a6f0b83a87c, type: 3}
  _parkingSprite: {fileID: 21300000, guid: 2776e7415ee80d54b8ba0b71a8f22d19, type: 3}
